
State Machine - |top|display:INST_display|slec_mux:INST_SELMUX|state
Name state.s2 state.s1 state.s0 
state.s0 0 0 0 
state.s1 0 1 1 
state.s2 1 0 1 

State Machine - |top|estados_encoder:INS_ESENC|state
Name state.s4 state.s3 state.s2 state.s1 state.s0 
state.s0 0 0 0 0 0 
state.s1 0 0 0 1 1 
state.s2 0 0 1 0 1 
state.s3 0 1 0 0 1 
state.s4 1 0 0 0 1 
